{
  "images" : [
    {
      "idiom" : "universal",
      "filename" : "512px-Twemoji2_2b50.svg.png",
      "scale" : "1x"
    },
    {
      "idiom" : "universal",
      "filename" : "512px-Twemoji2_2b50.svg-1.png",
      "scale" : "2x"
    },
    {
      "idiom" : "universal",
      "filename" : "512px-Twemoji2_2b50.svg-2.png",
      "scale" : "3x"
    }
  ],
  "info" : {
    "version" : 1,
    "author" : "xcode"
  }
}